…
Tabulate and display folder size.

``` r
dir_info("src", recurse = TRUE) %>%
  group_by(directory = path_dir(path)) %>%
  tally(wt = size, sort = TRUE)
#> # A tibble: 54 x 2
#>    directory                                        n
#>    <chr>                                  <fs::bytes>
#>  1 src/libuv                                    3.92M
#>  2 src/libuv/autom4te.cache                     2.44M
#>  3 src                                        976.15K
#>  4 src/libuv/test                             865.35K
#>  5 src/libuv/src/win                          683.14K
#>  6 src/libuv/src/unix                         526.47K
#>  7 src/libuv/docs/src/static                   328.3K
#>  8 src/libuv/m4                               319.95K
#>  9 src/libuv/include                          192.33K
#> 10 src/libuv/docs/src/static/diagrams.key     184.02K
#> # … with 44 more rows
```
…
