Cross-Platform File System Operations Based on 'libuv' • fs
…
Tabulate and display folder size.

dir_info("src", recursive = TRUE) %>%
  group_by(directory = path_dir(path)) %>%
  tally(wt = size, sort = TRUE)
#> Warning: `recursive` is deprecated, please use `recurse` instead
#> # A tibble: 53 x 2
#>    directory                                        n
#>    <chr>                                  <fs::bytes>
#>  1 src/libuv                                    2.46M
#>  2 src/libuv/test                             869.22K
#>  3 src/libuv/src/win                          683.14K
#>  4 src/libuv/src/unix                         526.87K
#>  5 src/libuv/docs/src/static                  332.05K
#>  6 src/libuv/m4                               319.95K
#>  7 src/libuv/include                          192.33K
#>  8 src/libuv/docs/src/static/diagrams.key     191.74K
#>  9 src/libuv/docs/src                          163.7K
#> 10 src/libuv/docs/code                           112K
#> # … with 43 more rows
…
