…
Display folder size

dir_info("src", recursive = TRUE) %>%
  group_by(directory = path_dir(path)) %>%
  tally(wt = size, sort = TRUE)
#> # A tibble: 53 x 2
#>    directory                                        n
#>    <fs::path>                             <fs::bytes>
#>  1 src                                          2.65M
#>  2 src/libuv                                    2.53M
#>  3 src/libuv/autom4te.cache                     2.13M
#>  4 src/libuv/src/unix                           1.08M
#>  5 src/libuv/test                             865.36K
#>  6 src/libuv/src/win                           683.1K
#>  7 src/libuv/m4                               334.61K
#>  8 src/libuv/docs/src/static                  328.32K
#>  9 src/libuv/include                          192.33K
#> 10 src/libuv/docs/src/static/diagrams.key     184.04K
#> # ... with 43 more rows
…
